{
    "$schema": "http://schema.management.azure.com/schemas/2015-01-01/deploymentParameters.json#",
    "contentVersion": "1.0.0.0",
    "parameters": {
        "location": {
            "value": "canadacentral"
        },
        "_artifactsLocation": {
            "value": "https://bitbucket.org/atlassian/atlassian-azure-deployment/raw/master/jira/"
        },
        "_artifactsLocationSasToken": {
            "value": ""
        },
        "sshUserName": {
            "value": "jiraadmin"
        },
        "jiraClusterSize": {
            "value": "small"
        },
        "dbPassword": {
            "value": "P@55w0rd"
        },
        "jiraAdminUserPassword": {
            "value": "admin"
        },
        "enableAnalytics": {
            "value": true 
        }
    }
}